<?xml version="1.0" encoding="utf-8"?>
<!-- Generator: Adobe Illustrator 23.0.3, SVG Export Plug-In . SVG Version: 6.00 Build 0)  -->
<svg version="1.1" id="Layer_1" xmlns="http://www.w3.org/2000/svg" xmlns:xlink="http://www.w3.org/1999/xlink" x="0px" y="0px"
	 viewBox="0 0 19.5 13.5" style="enable-background:new 0 0 19.5 13.5;" xml:space="preserve">
<style type="text/css">
	.st0{fill:none;stroke:#D6DDD8;stroke-width:0.5;stroke-miterlimit:10;}
	.st1{fill:#231F20;}
	.st2{fill:#EF7E1D;}
</style>
<title>Asset 5</title>
<g>
	<g id="Layer_1-2">
		<path class="st0" d="M2.2,0.2h15c1.1,0,2,0.9,2,2v9c0,1.1-0.9,2-2,2h-15c-1.1,0-2-0.9-2-2v-9C0.2,1.1,1.1,0.2,2.2,0.2z"/>
		<g>
			<g id="XMLID_404_">
				<path class="st1" d="M2.5,5.5H1.8V8h0.7c0.4,0,0.7-0.1,0.9-0.3c0.3-0.2,0.5-0.6,0.5-1C3.9,6,3.3,5.5,2.5,5.5z M3.1,7.4
					C2.9,7.5,2.7,7.6,2.4,7.6H2.3V5.9h0.1c0.3,0,0.5,0.1,0.7,0.2c0.2,0.2,0.3,0.4,0.3,0.6C3.3,7,3.2,7.2,3.1,7.4z"/>
				<rect id="XMLID_422_" x="4.1" y="5.5" class="st1" width="0.5" height="2.6"/>
				<path id="XMLID_421_" class="st1" d="M5.8,6.4C5.5,6.3,5.4,6.3,5.4,6.1c0-0.2,0.2-0.3,0.4-0.3C6,5.8,6.1,5.9,6.2,6l0.3-0.3
					C6.3,5.5,6,5.4,5.7,5.4c-0.5,0-0.8,0.3-0.8,0.7c0,0.4,0.2,0.5,0.6,0.7C5.7,6.9,5.8,7,5.9,7C6,7.1,6,7.2,6,7.3
					c0,0.2-0.2,0.4-0.4,0.4c-0.2,0-0.4-0.1-0.5-0.3L4.8,7.6C5,7.9,5.3,8.1,5.7,8.1c0.5,0,0.9-0.3,0.9-0.8C6.6,6.8,6.4,6.6,5.8,6.4z"
					/>
				<path id="XMLID_420_" class="st1" d="M6.7,6.7c0,0.8,0.6,1.3,1.4,1.3c0.2,0,0.4,0,0.6-0.1V7.3C8.5,7.5,8.3,7.6,8.1,7.6
					c-0.5,0-0.9-0.4-0.9-0.9c0-0.5,0.4-0.9,0.8-0.9c0.2,0,0.4,0.1,0.6,0.3V5.6C8.5,5.4,8.3,5.4,8.1,5.4C7.3,5.4,6.7,6,6.7,6.7z"/>
				<polygon id="XMLID_419_" class="st1" points="12.7,7.2 12,5.5 11.4,5.5 12.5,8.1 12.8,8.1 13.9,5.5 13.4,5.5 				"/>
				<polygon id="XMLID_418_" class="st1" points="14.1,8 15.5,8 15.5,7.6 14.6,7.6 14.6,6.9 15.5,6.9 15.5,6.5 14.6,6.5 14.6,5.9 
					15.5,5.9 15.5,5.5 14.1,5.5 				"/>
				<path class="st1" d="M17.5,6.2c0-0.5-0.3-0.8-0.9-0.8h-0.7V8h0.5V7h0.1l0.7,1h0.6l-0.8-1.1C17.3,6.9,17.5,6.6,17.5,6.2z
					 M16.5,6.6h-0.1V5.9h0.2C16.8,5.9,17,6,17,6.2C17,6.5,16.8,6.6,16.5,6.6z"/>
			</g>
			<circle class="st2" cx="10.2" cy="6.8" r="1.4"/>
		</g>
	</g>
</g>
</svg>
